^C:\USERS\MACIK\DESKTOP\CS250\LABS\LAB-DEBUGGING-TOOLS\MAIN.CPP
C:\USERS\MACIK\DESKTOP\CS250\LABS\LAB-DEBUGGING-TOOLS\PROJECT1\PROJECT1\DEBUG\VC141.PDB
C:\USERS\MACIK\DESKTOP\CS250\LABS\LAB-DEBUGGING-TOOLS\PROJECT1\PROJECT1\DEBUG\VC141.IDB
C:\USERS\MACIK\DESKTOP\CS250\LABS\LAB-DEBUGGING-TOOLS\PROJECT1\PROJECT1\DEBUG\MAIN.OBJ
