^C:\USERS\MACIK\DESKTOP\CS250\LABS\EXCEPTIONHANDLING\LAB-EXCEPTIONHANDLING\PROJECT1\PROJECT1\DEBUG\MAIN.OBJ
C:\USERS\MACIK\DESKTOP\CS250\LABS\EXCEPTIONHANDLING\LAB-EXCEPTIONHANDLING\PROJECT1\DEBUG\PROJECT1.ILK
C:\USERS\MACIK\DESKTOP\CS250\LABS\EXCEPTIONHANDLING\LAB-EXCEPTIONHANDLING\PROJECT1\DEBUG\PROJECT1.EXE
C:\USERS\MACIK\DESKTOP\CS250\LABS\EXCEPTIONHANDLING\LAB-EXCEPTIONHANDLING\PROJECT1\DEBUG\PROJECT1.PDB
